[ 50%] Built target base_link_controller_node
[100%] Built target arm_controller_node
-- Install configuration: ""
-- Up-to-date: /home/trb/ros2_ws/install/move_control/share/ament_index/resource_index/package_run_dependencies/move_control
-- Up-to-date: /home/trb/ros2_ws/install/move_control/share/ament_index/resource_index/parent_prefix_path/move_control
-- Up-to-date: /home/trb/ros2_ws/install/move_control/share/move_control/environment/ament_prefix_path.sh
-- Up-to-date: /home/trb/ros2_ws/install/move_control/share/move_control/environment/ament_prefix_path.dsv
-- Up-to-date: /home/trb/ros2_ws/install/move_control/share/move_control/environment/path.sh
-- Up-to-date: /home/trb/ros2_ws/install/move_control/share/move_control/environment/path.dsv
-- Up-to-date: /home/trb/ros2_ws/install/move_control/share/move_control/local_setup.bash
-- Up-to-date: /home/trb/ros2_ws/install/move_control/share/move_control/local_setup.sh
-- Up-to-date: /home/trb/ros2_ws/install/move_control/share/move_control/local_setup.zsh
-- Up-to-date: /home/trb/ros2_ws/install/move_control/share/move_control/local_setup.dsv
-- Installing: /home/trb/ros2_ws/install/move_control/share/move_control/package.dsv
-- Up-to-date: /home/trb/ros2_ws/install/move_control/share/ament_index/resource_index/packages/move_control
-- Up-to-date: /home/trb/ros2_ws/install/move_control/share/move_control/cmake/move_controlConfig.cmake
-- Up-to-date: /home/trb/ros2_ws/install/move_control/share/move_control/cmake/move_controlConfig-version.cmake
-- Up-to-date: /home/trb/ros2_ws/install/move_control/share/move_control/package.xml
-- Up-to-date: /home/trb/ros2_ws/install/move_control/lib/move_control/base_link_controller_node
-- Up-to-date: /home/trb/ros2_ws/install/move_control/lib/move_control/arm_controller_node
