[0.000000] (-) TimerEvent: {}
[0.000332] (cpp00-urdf) JobQueued: {'identifier': 'cpp00-urdf', 'dependencies': OrderedDict()}
[0.000349] (cpp00-urdf) JobStarted: {'identifier': 'cpp00-urdf'}
[0.024181] (cpp00-urdf) JobProgress: {'identifier': 'cpp00-urdf', 'progress': 'cmake'}
[0.024964] (cpp00-urdf) JobProgress: {'identifier': 'cpp00-urdf', 'progress': 'build'}
[0.025007] (cpp00-urdf) Command: {'cmd': ['/usr/bin/cmake', '--build', '/home/trb/ros2_ws/build/cpp00-urdf', '--', '-j32', '-l32'], 'cwd': '/home/trb/ros2_ws/build/cpp00-urdf', 'env': OrderedDict([('LESSOPEN', '| /usr/bin/lesspipe %s'), ('INSIDE_GENIE', 'true'), ('MAIL', '/var/mail/root'), ('USER', 'root'), ('XDG_SESSION_TYPE', 'tty'), ('SHLVL', '1'), ('LD_LIBRARY_PATH', '/usr/lib/x86_64-linux-gnu/gazebo-11/plugins:/opt/ros/humble/opt/rviz_ogre_vendor/lib:/opt/ros/humble/lib/x86_64-linux-gnu:/opt/ros/humble/lib'), ('HOME', '/root'), ('OLDPWD', '/root/LearnOpenGL/build'), ('ROS_PYTHON_VERSION', '3'), ('SYSTEMD_EXEC_PID', '377'), ('WSL_DISTRO_NAME', 'Ubuntu-22.04'), ('COLCON_PREFIX_PATH', '/home/trb/ros2_ws/install'), ('ROS_DISTRO', 'humble'), ('LOGNAME', 'root'), ('WSL_INTEROP', '/run/WSL/8_interop'), ('_', '/usr/bin/colcon'), ('ROS_VERSION', '2'), ('XDG_SESSION_CLASS', 'user'), ('TERM', 'xterm-256color'), ('XDG_SESSION_ID', 'c1'), ('ROS_LOCALHOST_ONLY', '0'), ('PATH', '/opt/ros/humble/bin:/usr/local/sbin:/usr/local/bin:/usr/sbin:/usr/bin:/sbin:/bin:/usr/games:/usr/local/games:/snap/bin'), ('INVOCATION_ID', '85c862bbce2d413cbcbfb931f068ec26'), ('XDG_RUNTIME_DIR', '/run/user/0'), ('DISPLAY', '172.30.128.1:0'), ('LANG', 'en_US.UTF-8'), ('LS_COLORS', 'rs=0:di=01;34:ln=01;36:mh=00:pi=40;33:so=01;35:do=01;35:bd=40;33;01:cd=40;33;01:or=40;31;01:mi=00:su=37;41:sg=30;43:ca=30;41:tw=30;42:ow=34;42:st=37;44:ex=01;32:*.tar=01;31:*.tgz=01;31:*.arc=01;31:*.arj=01;31:*.taz=01;31:*.lha=01;31:*.lz4=01;31:*.lzh=01;31:*.lzma=01;31:*.tlz=01;31:*.txz=01;31:*.tzo=01;31:*.t7z=01;31:*.zip=01;31:*.z=01;31:*.dz=01;31:*.gz=01;31:*.lrz=01;31:*.lz=01;31:*.lzo=01;31:*.xz=01;31:*.zst=01;31:*.tzst=01;31:*.bz2=01;31:*.bz=01;31:*.tbz=01;31:*.tbz2=01;31:*.tz=01;31:*.deb=01;31:*.rpm=01;31:*.jar=01;31:*.war=01;31:*.ear=01;31:*.sar=01;31:*.rar=01;31:*.alz=01;31:*.ace=01;31:*.zoo=01;31:*.cpio=01;31:*.7z=01;31:*.rz=01;31:*.cab=01;31:*.wim=01;31:*.swm=01;31:*.dwm=01;31:*.esd=01;31:*.jpg=01;35:*.jpeg=01;35:*.mjpg=01;35:*.mjpeg=01;35:*.gif=01;35:*.bmp=01;35:*.pbm=01;35:*.pgm=01;35:*.ppm=01;35:*.tga=01;35:*.xbm=01;35:*.xpm=01;35:*.tif=01;35:*.tiff=01;35:*.png=01;35:*.svg=01;35:*.svgz=01;35:*.mng=01;35:*.pcx=01;35:*.mov=01;35:*.mpg=01;35:*.mpeg=01;35:*.m2v=01;35:*.mkv=01;35:*.webm=01;35:*.webp=01;35:*.ogm=01;35:*.mp4=01;35:*.m4v=01;35:*.mp4v=01;35:*.vob=01;35:*.qt=01;35:*.nuv=01;35:*.wmv=01;35:*.asf=01;35:*.rm=01;35:*.rmvb=01;35:*.flc=01;35:*.avi=01;35:*.fli=01;35:*.flv=01;35:*.gl=01;35:*.dl=01;35:*.xcf=01;35:*.xwd=01;35:*.yuv=01;35:*.cgm=01;35:*.emf=01;35:*.ogv=01;35:*.ogx=01;35:*.aac=00;36:*.au=00;36:*.flac=00;36:*.m4a=00;36:*.mid=00;36:*.midi=00;36:*.mka=00;36:*.mp3=00;36:*.mpc=00;36:*.ogg=00;36:*.ra=00;36:*.wav=00;36:*.oga=00;36:*.opus=00;36:*.spx=00;36:*.xspf=00;36:'), ('AMENT_PREFIX_PATH', '/home/trb/ros2_ws/install/cpp00-urdf:/opt/ros/humble'), ('SHELL', '/bin/sh'), ('LESSCLOSE', '/usr/bin/lesspipe %s %s'), ('PWD', '/home/trb/ros2_ws/build/cpp00-urdf'), ('LC_ALL', 'en_US.UTF-8'), ('XDG_DATA_DIRS', '/usr/local/share:/usr/share:/var/lib/snapd/desktop'), ('MESA_GL_VERSION_OVERRIDE', '3.3'), ('PYTHONPATH', '/opt/ros/humble/lib/python3.10/site-packages:/opt/ros/humble/local/lib/python3.10/dist-packages'), ('COLCON', '1'), ('CMAKE_PREFIX_PATH', '/home/trb/ros2_ws/install/cpp00-urdf:/opt/ros/humble'), ('WSLENV', '')]), 'shell': False}
[0.042184] (cpp00-urdf) CommandEnded: {'returncode': 0}
[0.051697] (cpp00-urdf) JobProgress: {'identifier': 'cpp00-urdf', 'progress': 'install'}
[0.055198] (cpp00-urdf) Command: {'cmd': ['/usr/bin/cmake', '--install', '/home/trb/ros2_ws/build/cpp00-urdf'], 'cwd': '/home/trb/ros2_ws/build/cpp00-urdf', 'env': OrderedDict([('LESSOPEN', '| /usr/bin/lesspipe %s'), ('INSIDE_GENIE', 'true'), ('MAIL', '/var/mail/root'), ('USER', 'root'), ('XDG_SESSION_TYPE', 'tty'), ('SHLVL', '1'), ('LD_LIBRARY_PATH', '/usr/lib/x86_64-linux-gnu/gazebo-11/plugins:/opt/ros/humble/opt/rviz_ogre_vendor/lib:/opt/ros/humble/lib/x86_64-linux-gnu:/opt/ros/humble/lib'), ('HOME', '/root'), ('OLDPWD', '/root/LearnOpenGL/build'), ('ROS_PYTHON_VERSION', '3'), ('SYSTEMD_EXEC_PID', '377'), ('WSL_DISTRO_NAME', 'Ubuntu-22.04'), ('COLCON_PREFIX_PATH', '/home/trb/ros2_ws/install'), ('ROS_DISTRO', 'humble'), ('LOGNAME', 'root'), ('WSL_INTEROP', '/run/WSL/8_interop'), ('_', '/usr/bin/colcon'), ('ROS_VERSION', '2'), ('XDG_SESSION_CLASS', 'user'), ('TERM', 'xterm-256color'), ('XDG_SESSION_ID', 'c1'), ('ROS_LOCALHOST_ONLY', '0'), ('PATH', '/opt/ros/humble/bin:/usr/local/sbin:/usr/local/bin:/usr/sbin:/usr/bin:/sbin:/bin:/usr/games:/usr/local/games:/snap/bin'), ('INVOCATION_ID', '85c862bbce2d413cbcbfb931f068ec26'), ('XDG_RUNTIME_DIR', '/run/user/0'), ('DISPLAY', '172.30.128.1:0'), ('LANG', 'en_US.UTF-8'), ('LS_COLORS', 'rs=0:di=01;34:ln=01;36:mh=00:pi=40;33:so=01;35:do=01;35:bd=40;33;01:cd=40;33;01:or=40;31;01:mi=00:su=37;41:sg=30;43:ca=30;41:tw=30;42:ow=34;42:st=37;44:ex=01;32:*.tar=01;31:*.tgz=01;31:*.arc=01;31:*.arj=01;31:*.taz=01;31:*.lha=01;31:*.lz4=01;31:*.lzh=01;31:*.lzma=01;31:*.tlz=01;31:*.txz=01;31:*.tzo=01;31:*.t7z=01;31:*.zip=01;31:*.z=01;31:*.dz=01;31:*.gz=01;31:*.lrz=01;31:*.lz=01;31:*.lzo=01;31:*.xz=01;31:*.zst=01;31:*.tzst=01;31:*.bz2=01;31:*.bz=01;31:*.tbz=01;31:*.tbz2=01;31:*.tz=01;31:*.deb=01;31:*.rpm=01;31:*.jar=01;31:*.war=01;31:*.ear=01;31:*.sar=01;31:*.rar=01;31:*.alz=01;31:*.ace=01;31:*.zoo=01;31:*.cpio=01;31:*.7z=01;31:*.rz=01;31:*.cab=01;31:*.wim=01;31:*.swm=01;31:*.dwm=01;31:*.esd=01;31:*.jpg=01;35:*.jpeg=01;35:*.mjpg=01;35:*.mjpeg=01;35:*.gif=01;35:*.bmp=01;35:*.pbm=01;35:*.pgm=01;35:*.ppm=01;35:*.tga=01;35:*.xbm=01;35:*.xpm=01;35:*.tif=01;35:*.tiff=01;35:*.png=01;35:*.svg=01;35:*.svgz=01;35:*.mng=01;35:*.pcx=01;35:*.mov=01;35:*.mpg=01;35:*.mpeg=01;35:*.m2v=01;35:*.mkv=01;35:*.webm=01;35:*.webp=01;35:*.ogm=01;35:*.mp4=01;35:*.m4v=01;35:*.mp4v=01;35:*.vob=01;35:*.qt=01;35:*.nuv=01;35:*.wmv=01;35:*.asf=01;35:*.rm=01;35:*.rmvb=01;35:*.flc=01;35:*.avi=01;35:*.fli=01;35:*.flv=01;35:*.gl=01;35:*.dl=01;35:*.xcf=01;35:*.xwd=01;35:*.yuv=01;35:*.cgm=01;35:*.emf=01;35:*.ogv=01;35:*.ogx=01;35:*.aac=00;36:*.au=00;36:*.flac=00;36:*.m4a=00;36:*.mid=00;36:*.midi=00;36:*.mka=00;36:*.mp3=00;36:*.mpc=00;36:*.ogg=00;36:*.ra=00;36:*.wav=00;36:*.oga=00;36:*.opus=00;36:*.spx=00;36:*.xspf=00;36:'), ('AMENT_PREFIX_PATH', '/home/trb/ros2_ws/install/cpp00-urdf:/opt/ros/humble'), ('SHELL', '/bin/sh'), ('LESSCLOSE', '/usr/bin/lesspipe %s %s'), ('PWD', '/home/trb/ros2_ws/build/cpp00-urdf'), ('LC_ALL', 'en_US.UTF-8'), ('XDG_DATA_DIRS', '/usr/local/share:/usr/share:/var/lib/snapd/desktop'), ('MESA_GL_VERSION_OVERRIDE', '3.3'), ('PYTHONPATH', '/opt/ros/humble/lib/python3.10/site-packages:/opt/ros/humble/local/lib/python3.10/dist-packages'), ('COLCON', '1'), ('CMAKE_PREFIX_PATH', '/home/trb/ros2_ws/install/cpp00-urdf:/opt/ros/humble'), ('WSLENV', '')]), 'shell': False}
[0.058291] (cpp00-urdf) StdoutLine: {'line': b'-- Install configuration: ""\n'}
[0.058669] (cpp00-urdf) StdoutLine: {'line': b'-- Up-to-date: /home/trb/ros2_ws/install/cpp00-urdf/share/cpp00-urdf/launch\n'}
[0.058750] (cpp00-urdf) StdoutLine: {'line': b'-- Up-to-date: /home/trb/ros2_ws/install/cpp00-urdf/share/cpp00-urdf/launch/display.launch.py\n'}
[0.058778] (cpp00-urdf) StdoutLine: {'line': b'-- Up-to-date: /home/trb/ros2_ws/install/cpp00-urdf/share/cpp00-urdf/rviz\n'}
[0.058854] (cpp00-urdf) StdoutLine: {'line': b'-- Up-to-date: /home/trb/ros2_ws/install/cpp00-urdf/share/cpp00-urdf/urdf\n'}
[0.058978] (cpp00-urdf) StdoutLine: {'line': b'-- Up-to-date: /home/trb/ros2_ws/install/cpp00-urdf/share/cpp00-urdf/urdf/xacro\n'}
[0.059033] (cpp00-urdf) StdoutLine: {'line': b'-- Up-to-date: /home/trb/ros2_ws/install/cpp00-urdf/share/cpp00-urdf/urdf/urdf\n'}
[0.059074] (cpp00-urdf) StdoutLine: {'line': b'-- Installing: /home/trb/ros2_ws/install/cpp00-urdf/share/cpp00-urdf/urdf/urdf/cat259d.urdf\n'}
[0.059111] (cpp00-urdf) StdoutLine: {'line': b'-- Up-to-date: /home/trb/ros2_ws/install/cpp00-urdf/share/cpp00-urdf/meshes\n'}
[0.059135] (cpp00-urdf) StdoutLine: {'line': b'-- Up-to-date: /home/trb/ros2_ws/install/cpp00-urdf/share/cpp00-urdf/meshes/arm.dae\n'}
[0.059159] (cpp00-urdf) StdoutLine: {'line': b'-- Up-to-date: /home/trb/ros2_ws/install/cpp00-urdf/share/cpp00-urdf/meshes/bucket.dae\n'}
[0.059181] (cpp00-urdf) StdoutLine: {'line': b'-- Up-to-date: /home/trb/ros2_ws/install/cpp00-urdf/share/cpp00-urdf/meshes/body.dae\n'}
[0.059204] (cpp00-urdf) StdoutLine: {'line': b'-- Up-to-date: /home/trb/ros2_ws/install/cpp00-urdf/share/ament_index/resource_index/package_run_dependencies/cpp00-urdf\n'}
[0.059257] (cpp00-urdf) StdoutLine: {'line': b'-- Up-to-date: /home/trb/ros2_ws/install/cpp00-urdf/share/ament_index/resource_index/parent_prefix_path/cpp00-urdf\n'}
[0.059332] (cpp00-urdf) StdoutLine: {'line': b'-- Up-to-date: /home/trb/ros2_ws/install/cpp00-urdf/share/cpp00-urdf/environment/ament_prefix_path.sh\n'}
[0.059405] (cpp00-urdf) StdoutLine: {'line': b'-- Up-to-date: /home/trb/ros2_ws/install/cpp00-urdf/share/cpp00-urdf/environment/ament_prefix_path.dsv\n'}
[0.059436] (cpp00-urdf) StdoutLine: {'line': b'-- Up-to-date: /home/trb/ros2_ws/install/cpp00-urdf/share/cpp00-urdf/environment/path.sh\n'}
[0.059781] (cpp00-urdf) StdoutLine: {'line': b'-- Up-to-date: /home/trb/ros2_ws/install/cpp00-urdf/share/cpp00-urdf/environment/path.dsv\n'}
[0.060447] (cpp00-urdf) StdoutLine: {'line': b'-- Up-to-date: /home/trb/ros2_ws/install/cpp00-urdf/share/cpp00-urdf/local_setup.bash\n'}
[0.060529] (cpp00-urdf) StdoutLine: {'line': b'-- Up-to-date: /home/trb/ros2_ws/install/cpp00-urdf/share/cpp00-urdf/local_setup.sh\n'}
[0.060605] (cpp00-urdf) StdoutLine: {'line': b'-- Up-to-date: /home/trb/ros2_ws/install/cpp00-urdf/share/cpp00-urdf/local_setup.zsh\n'}
[0.060679] (cpp00-urdf) StdoutLine: {'line': b'-- Up-to-date: /home/trb/ros2_ws/install/cpp00-urdf/share/cpp00-urdf/local_setup.dsv\n'}
[0.060751] (cpp00-urdf) StdoutLine: {'line': b'-- Installing: /home/trb/ros2_ws/install/cpp00-urdf/share/cpp00-urdf/package.dsv\n'}
[0.060823] (cpp00-urdf) StdoutLine: {'line': b'-- Up-to-date: /home/trb/ros2_ws/install/cpp00-urdf/share/ament_index/resource_index/packages/cpp00-urdf\n'}
[0.060895] (cpp00-urdf) StdoutLine: {'line': b'-- Up-to-date: /home/trb/ros2_ws/install/cpp00-urdf/share/cpp00-urdf/cmake/cpp00-urdfConfig.cmake\n'}
[0.060968] (cpp00-urdf) StdoutLine: {'line': b'-- Up-to-date: /home/trb/ros2_ws/install/cpp00-urdf/share/cpp00-urdf/cmake/cpp00-urdfConfig-version.cmake\n'}
[0.061034] (cpp00-urdf) StdoutLine: {'line': b'-- Up-to-date: /home/trb/ros2_ws/install/cpp00-urdf/share/cpp00-urdf/package.xml\n'}
[0.061109] (cpp00-urdf) CommandEnded: {'returncode': 0}
[0.100333] (-) TimerEvent: {}
[0.116158] (cpp00-urdf) JobEnded: {'identifier': 'cpp00-urdf', 'rc': 0}
[0.116532] (-) EventReactorShutdown: {}
