[0.061s] Invoking command in '/home/trb/ros2_ws/build/cpp00-urdf': CMAKE_PREFIX_PATH=${CMAKE_PREFIX_PATH}:/opt/ros/humble /usr/bin/cmake --build /home/trb/ros2_ws/build/cpp00-urdf -- -j32 -l32
[0.077s] Invoked command in '/home/trb/ros2_ws/build/cpp00-urdf' returned '0': CMAKE_PREFIX_PATH=${CMAKE_PREFIX_PATH}:/opt/ros/humble /usr/bin/cmake --build /home/trb/ros2_ws/build/cpp00-urdf -- -j32 -l32
[0.092s] Invoking command in '/home/trb/ros2_ws/build/cpp00-urdf': CMAKE_PREFIX_PATH=${CMAKE_PREFIX_PATH}:/opt/ros/humble /usr/bin/cmake --install /home/trb/ros2_ws/build/cpp00-urdf
[0.094s] -- Install configuration: ""
[0.094s] -- Up-to-date: /home/trb/ros2_ws/install/cpp00-urdf/share/cpp00-urdf/launch
[0.094s] -- Installing: /home/trb/ros2_ws/install/cpp00-urdf/share/cpp00-urdf/launch/display.launch.py
[0.094s] -- Up-to-date: /home/trb/ros2_ws/install/cpp00-urdf/share/cpp00-urdf/rviz
[0.094s] -- Up-to-date: /home/trb/ros2_ws/install/cpp00-urdf/share/cpp00-urdf/urdf
[0.095s] -- Up-to-date: /home/trb/ros2_ws/install/cpp00-urdf/share/cpp00-urdf/urdf/xacro
[0.095s] -- Up-to-date: /home/trb/ros2_ws/install/cpp00-urdf/share/cpp00-urdf/urdf/urdf
[0.095s] -- Up-to-date: /home/trb/ros2_ws/install/cpp00-urdf/share/cpp00-urdf/urdf/urdf/cat259d.urdf
[0.095s] -- Up-to-date: /home/trb/ros2_ws/install/cpp00-urdf/share/cpp00-urdf/meshes
[0.095s] -- Up-to-date: /home/trb/ros2_ws/install/cpp00-urdf/share/cpp00-urdf/meshes/arm.dae
[0.095s] -- Up-to-date: /home/trb/ros2_ws/install/cpp00-urdf/share/cpp00-urdf/meshes/bucket.dae
[0.095s] -- Up-to-date: /home/trb/ros2_ws/install/cpp00-urdf/share/cpp00-urdf/meshes/body.dae
[0.095s] -- Up-to-date: /home/trb/ros2_ws/install/cpp00-urdf/share/ament_index/resource_index/package_run_dependencies/cpp00-urdf
[0.095s] -- Up-to-date: /home/trb/ros2_ws/install/cpp00-urdf/share/ament_index/resource_index/parent_prefix_path/cpp00-urdf
[0.095s] -- Up-to-date: /home/trb/ros2_ws/install/cpp00-urdf/share/cpp00-urdf/environment/ament_prefix_path.sh
[0.095s] -- Up-to-date: /home/trb/ros2_ws/install/cpp00-urdf/share/cpp00-urdf/environment/ament_prefix_path.dsv
[0.095s] -- Up-to-date: /home/trb/ros2_ws/install/cpp00-urdf/share/cpp00-urdf/environment/path.sh
[0.096s] -- Up-to-date: /home/trb/ros2_ws/install/cpp00-urdf/share/cpp00-urdf/environment/path.dsv
[0.096s] -- Up-to-date: /home/trb/ros2_ws/install/cpp00-urdf/share/cpp00-urdf/local_setup.bash
[0.096s] -- Up-to-date: /home/trb/ros2_ws/install/cpp00-urdf/share/cpp00-urdf/local_setup.sh
[0.096s] -- Up-to-date: /home/trb/ros2_ws/install/cpp00-urdf/share/cpp00-urdf/local_setup.zsh
[0.096s] -- Up-to-date: /home/trb/ros2_ws/install/cpp00-urdf/share/cpp00-urdf/local_setup.dsv
[0.096s] -- Installing: /home/trb/ros2_ws/install/cpp00-urdf/share/cpp00-urdf/package.dsv
[0.096s] -- Up-to-date: /home/trb/ros2_ws/install/cpp00-urdf/share/ament_index/resource_index/packages/cpp00-urdf
[0.096s] -- Up-to-date: /home/trb/ros2_ws/install/cpp00-urdf/share/cpp00-urdf/cmake/cpp00-urdfConfig.cmake
[0.097s] -- Up-to-date: /home/trb/ros2_ws/install/cpp00-urdf/share/cpp00-urdf/cmake/cpp00-urdfConfig-version.cmake
[0.097s] -- Up-to-date: /home/trb/ros2_ws/install/cpp00-urdf/share/cpp00-urdf/package.xml
[0.097s] Invoked command in '/home/trb/ros2_ws/build/cpp00-urdf' returned '0': CMAKE_PREFIX_PATH=${CMAKE_PREFIX_PATH}:/opt/ros/humble /usr/bin/cmake --install /home/trb/ros2_ws/build/cpp00-urdf
