<?xml version="1.0"?>
<robot name="CAT_259D" xmlns:xacro="http://www.ros.org/wiki/xacro">

    <xacro:property name="arm_height" value="1508"/>
    <xacro:property name="bucket_height" value="108"/>
    <xacro:property name="path" value="/home/trb/ros2_ws/src/cpp00-urdf/meshes"/>

    <!-- <link name="world"/> -->

    <link name="base_link">
        <visual>
            <geometry>
                <mesh filename="package://cpp00-urdf/meshes/body.dae"/>
            </geometry>
            <origin xyz="0 0 0"/>
        </visual>
    </link>

     <link name="arm">
        <visual>
            <geometry>
                <mesh filename="package://cpp00-urdf/meshes/arm.dae"/>
            </geometry>
            <origin xyz="0 0 0"/>
        </visual>
    </link>

    <link name="bucket">
        <visual>
            <geometry>
                <mesh filename="package://cpp00-urdf/meshes/bucket.dae"/>
            </geometry>
            <origin xyz="0 0 0"/>
        </visual>
    </link>

    <link name="world"/>


    <!-- <joint name="world_base" type="fixed">
        <parent link="world"/>
        <child  link="base_link"/>
    </joint> -->

    <joint name="base_arm" type="revolute">
        <parent link="base_link"/>
        <child  link="arm"/>
        <limit effort="1000.0" lower="-0.75" upper="0" velocity="0.5"/>
        <origin xyz="-0.161 0 1.508"/>
        <axis   xyz="0 1 0"/>
    </joint>

    <joint name="arm_bucket" type="revolute">
        <parent link="arm"/>
        <child  link="bucket"/>
        <limit effort="1000.0" lower="-0.15" upper="1.51" velocity="0.5"/>
        <origin xyz="2.174 0 -1.4"/>
        <axis   xyz="0 1 0"/>
    </joint>

    <joint name="world_to_base" type="fixed">
        <parent link="world"/>
        <child link="base_link"/>
    </joint>

</robot>