[0.000000] (-) TimerEvent: {}
[0.000901] (cpp00-urdf) JobQueued: {'identifier': 'cpp00-urdf', 'dependencies': OrderedDict()}
[0.000940] (move_control) JobQueued: {'identifier': 'move_control', 'dependencies': OrderedDict()}
[0.000951] (cpp00-urdf) JobStarted: {'identifier': 'cpp00-urdf'}
[0.025961] (move_control) JobStarted: {'identifier': 'move_control'}
[0.053772] (cpp00-urdf) JobProgress: {'identifier': 'cpp00-urdf', 'progress': 'cmake'}
[0.054476] (cpp00-urdf) JobProgress: {'identifier': 'cpp00-urdf', 'progress': 'build'}
[0.054550] (cpp00-urdf) Command: {'cmd': ['/usr/bin/cmake', '--build', '/home/trb/ros2_ws/build/cpp00-urdf', '--', '-j32', '-l32'], 'cwd': '/home/trb/ros2_ws/build/cpp00-urdf', 'env': OrderedDict([('LESSOPEN', '| /usr/bin/lesspipe %s'), ('INSIDE_GENIE', 'true'), ('MAIL', '/var/mail/root'), ('USER', 'root'), ('XDG_SESSION_TYPE', 'tty'), ('SHLVL', '1'), ('LD_LIBRARY_PATH', '/usr/lib/x86_64-linux-gnu/gazebo-11/plugins:/opt/ros/humble/opt/rviz_ogre_vendor/lib:/opt/ros/humble/lib/x86_64-linux-gnu:/opt/ros/humble/lib'), ('MOTD_SHOWN', 'update-motd'), ('HOME', '/root'), ('OLDPWD', '/root'), ('ROS_PYTHON_VERSION', '3'), ('SYSTEMD_EXEC_PID', '374'), ('WSL_DISTRO_NAME', 'Ubuntu-22.04'), ('COLCON_PREFIX_PATH', '/home/trb/ros2_ws/install'), ('ROS_DISTRO', 'humble'), ('LOGNAME', 'root'), ('WSL_INTEROP', '/run/WSL/8_interop'), ('_', '/usr/bin/colcon'), ('ROS_VERSION', '2'), ('XDG_SESSION_CLASS', 'user'), ('TERM', 'xterm-256color'), ('XDG_SESSION_ID', 'c1'), ('ROS_LOCALHOST_ONLY', '0'), ('PATH', '/opt/ros/humble/bin:/usr/local/sbin:/usr/local/bin:/usr/sbin:/usr/bin:/sbin:/bin:/usr/games:/usr/local/games:/snap/bin'), ('INVOCATION_ID', '7379646846084c1cbae608fa5c021840'), ('XDG_RUNTIME_DIR', '/run/user/0'), ('DISPLAY', '172.28.160.1:0'), ('LANG', 'en_US.UTF-8'), ('LS_COLORS', 'rs=0:di=01;34:ln=01;36:mh=00:pi=40;33:so=01;35:do=01;35:bd=40;33;01:cd=40;33;01:or=40;31;01:mi=00:su=37;41:sg=30;43:ca=30;41:tw=30;42:ow=34;42:st=37;44:ex=01;32:*.tar=01;31:*.tgz=01;31:*.arc=01;31:*.arj=01;31:*.taz=01;31:*.lha=01;31:*.lz4=01;31:*.lzh=01;31:*.lzma=01;31:*.tlz=01;31:*.txz=01;31:*.tzo=01;31:*.t7z=01;31:*.zip=01;31:*.z=01;31:*.dz=01;31:*.gz=01;31:*.lrz=01;31:*.lz=01;31:*.lzo=01;31:*.xz=01;31:*.zst=01;31:*.tzst=01;31:*.bz2=01;31:*.bz=01;31:*.tbz=01;31:*.tbz2=01;31:*.tz=01;31:*.deb=01;31:*.rpm=01;31:*.jar=01;31:*.war=01;31:*.ear=01;31:*.sar=01;31:*.rar=01;31:*.alz=01;31:*.ace=01;31:*.zoo=01;31:*.cpio=01;31:*.7z=01;31:*.rz=01;31:*.cab=01;31:*.wim=01;31:*.swm=01;31:*.dwm=01;31:*.esd=01;31:*.jpg=01;35:*.jpeg=01;35:*.mjpg=01;35:*.mjpeg=01;35:*.gif=01;35:*.bmp=01;35:*.pbm=01;35:*.pgm=01;35:*.ppm=01;35:*.tga=01;35:*.xbm=01;35:*.xpm=01;35:*.tif=01;35:*.tiff=01;35:*.png=01;35:*.svg=01;35:*.svgz=01;35:*.mng=01;35:*.pcx=01;35:*.mov=01;35:*.mpg=01;35:*.mpeg=01;35:*.m2v=01;35:*.mkv=01;35:*.webm=01;35:*.webp=01;35:*.ogm=01;35:*.mp4=01;35:*.m4v=01;35:*.mp4v=01;35:*.vob=01;35:*.qt=01;35:*.nuv=01;35:*.wmv=01;35:*.asf=01;35:*.rm=01;35:*.rmvb=01;35:*.flc=01;35:*.avi=01;35:*.fli=01;35:*.flv=01;35:*.gl=01;35:*.dl=01;35:*.xcf=01;35:*.xwd=01;35:*.yuv=01;35:*.cgm=01;35:*.emf=01;35:*.ogv=01;35:*.ogx=01;35:*.aac=00;36:*.au=00;36:*.flac=00;36:*.m4a=00;36:*.mid=00;36:*.midi=00;36:*.mka=00;36:*.mp3=00;36:*.mpc=00;36:*.ogg=00;36:*.ra=00;36:*.wav=00;36:*.oga=00;36:*.opus=00;36:*.spx=00;36:*.xspf=00;36:'), ('AMENT_PREFIX_PATH', '/home/trb/ros2_ws/install/move_control:/home/trb/ros2_ws/install/cpp00-urdf:/opt/ros/humble'), ('SHELL', '/bin/sh'), ('LESSCLOSE', '/usr/bin/lesspipe %s %s'), ('PWD', '/home/trb/ros2_ws/build/cpp00-urdf'), ('LC_ALL', 'en_US.UTF-8'), ('XDG_DATA_DIRS', '/usr/local/share:/usr/share:/var/lib/snapd/desktop'), ('PYTHONPATH', '/opt/ros/humble/lib/python3.10/site-packages:/opt/ros/humble/local/lib/python3.10/dist-packages'), ('COLCON', '1'), ('CMAKE_PREFIX_PATH', '/home/trb/ros2_ws/install/move_control:/home/trb/ros2_ws/install/cpp00-urdf:/opt/ros/humble'), ('WSLENV', '')]), 'shell': False}
[0.057267] (move_control) JobProgress: {'identifier': 'move_control', 'progress': 'cmake'}
[0.058867] (move_control) JobProgress: {'identifier': 'move_control', 'progress': 'build'}
[0.058923] (move_control) Command: {'cmd': ['/usr/bin/cmake', '--build', '/home/trb/ros2_ws/build/move_control', '--', '-j32', '-l32'], 'cwd': '/home/trb/ros2_ws/build/move_control', 'env': OrderedDict([('LESSOPEN', '| /usr/bin/lesspipe %s'), ('INSIDE_GENIE', 'true'), ('MAIL', '/var/mail/root'), ('USER', 'root'), ('XDG_SESSION_TYPE', 'tty'), ('SHLVL', '1'), ('LD_LIBRARY_PATH', '/usr/lib/x86_64-linux-gnu/gazebo-11/plugins:/opt/ros/humble/opt/rviz_ogre_vendor/lib:/opt/ros/humble/lib/x86_64-linux-gnu:/opt/ros/humble/lib'), ('MOTD_SHOWN', 'update-motd'), ('HOME', '/root'), ('OLDPWD', '/root'), ('ROS_PYTHON_VERSION', '3'), ('SYSTEMD_EXEC_PID', '374'), ('WSL_DISTRO_NAME', 'Ubuntu-22.04'), ('COLCON_PREFIX_PATH', '/home/trb/ros2_ws/install'), ('ROS_DISTRO', 'humble'), ('LOGNAME', 'root'), ('WSL_INTEROP', '/run/WSL/8_interop'), ('_', '/usr/bin/colcon'), ('ROS_VERSION', '2'), ('XDG_SESSION_CLASS', 'user'), ('TERM', 'xterm-256color'), ('XDG_SESSION_ID', 'c1'), ('ROS_LOCALHOST_ONLY', '0'), ('PATH', '/opt/ros/humble/bin:/usr/local/sbin:/usr/local/bin:/usr/sbin:/usr/bin:/sbin:/bin:/usr/games:/usr/local/games:/snap/bin'), ('INVOCATION_ID', '7379646846084c1cbae608fa5c021840'), ('XDG_RUNTIME_DIR', '/run/user/0'), ('DISPLAY', '172.28.160.1:0'), ('LANG', 'en_US.UTF-8'), ('LS_COLORS', 'rs=0:di=01;34:ln=01;36:mh=00:pi=40;33:so=01;35:do=01;35:bd=40;33;01:cd=40;33;01:or=40;31;01:mi=00:su=37;41:sg=30;43:ca=30;41:tw=30;42:ow=34;42:st=37;44:ex=01;32:*.tar=01;31:*.tgz=01;31:*.arc=01;31:*.arj=01;31:*.taz=01;31:*.lha=01;31:*.lz4=01;31:*.lzh=01;31:*.lzma=01;31:*.tlz=01;31:*.txz=01;31:*.tzo=01;31:*.t7z=01;31:*.zip=01;31:*.z=01;31:*.dz=01;31:*.gz=01;31:*.lrz=01;31:*.lz=01;31:*.lzo=01;31:*.xz=01;31:*.zst=01;31:*.tzst=01;31:*.bz2=01;31:*.bz=01;31:*.tbz=01;31:*.tbz2=01;31:*.tz=01;31:*.deb=01;31:*.rpm=01;31:*.jar=01;31:*.war=01;31:*.ear=01;31:*.sar=01;31:*.rar=01;31:*.alz=01;31:*.ace=01;31:*.zoo=01;31:*.cpio=01;31:*.7z=01;31:*.rz=01;31:*.cab=01;31:*.wim=01;31:*.swm=01;31:*.dwm=01;31:*.esd=01;31:*.jpg=01;35:*.jpeg=01;35:*.mjpg=01;35:*.mjpeg=01;35:*.gif=01;35:*.bmp=01;35:*.pbm=01;35:*.pgm=01;35:*.ppm=01;35:*.tga=01;35:*.xbm=01;35:*.xpm=01;35:*.tif=01;35:*.tiff=01;35:*.png=01;35:*.svg=01;35:*.svgz=01;35:*.mng=01;35:*.pcx=01;35:*.mov=01;35:*.mpg=01;35:*.mpeg=01;35:*.m2v=01;35:*.mkv=01;35:*.webm=01;35:*.webp=01;35:*.ogm=01;35:*.mp4=01;35:*.m4v=01;35:*.mp4v=01;35:*.vob=01;35:*.qt=01;35:*.nuv=01;35:*.wmv=01;35:*.asf=01;35:*.rm=01;35:*.rmvb=01;35:*.flc=01;35:*.avi=01;35:*.fli=01;35:*.flv=01;35:*.gl=01;35:*.dl=01;35:*.xcf=01;35:*.xwd=01;35:*.yuv=01;35:*.cgm=01;35:*.emf=01;35:*.ogv=01;35:*.ogx=01;35:*.aac=00;36:*.au=00;36:*.flac=00;36:*.m4a=00;36:*.mid=00;36:*.midi=00;36:*.mka=00;36:*.mp3=00;36:*.mpc=00;36:*.ogg=00;36:*.ra=00;36:*.wav=00;36:*.oga=00;36:*.opus=00;36:*.spx=00;36:*.xspf=00;36:'), ('AMENT_PREFIX_PATH', '/home/trb/ros2_ws/install/move_control:/home/trb/ros2_ws/install/cpp00-urdf:/opt/ros/humble'), ('SHELL', '/bin/sh'), ('LESSCLOSE', '/usr/bin/lesspipe %s %s'), ('PWD', '/home/trb/ros2_ws/build/move_control'), ('LC_ALL', 'en_US.UTF-8'), ('XDG_DATA_DIRS', '/usr/local/share:/usr/share:/var/lib/snapd/desktop'), ('PYTHONPATH', '/opt/ros/humble/lib/python3.10/site-packages:/opt/ros/humble/local/lib/python3.10/dist-packages'), ('COLCON', '1'), ('CMAKE_PREFIX_PATH', '/home/trb/ros2_ws/install/move_control:/home/trb/ros2_ws/install/cpp00-urdf:/opt/ros/humble'), ('WSLENV', '')]), 'shell': False}
[0.073197] (cpp00-urdf) CommandEnded: {'returncode': 0}
[0.076958] (move_control) StdoutLine: {'line': b'\x1b[35m\x1b[1mConsolidate compiler generated dependencies of target bucket_controller_node\x1b[0m\n'}
[0.082221] (move_control) StdoutLine: {'line': b'[ 66%] Built target base_link_controller_node\n'}
[0.082327] (move_control) StdoutLine: {'line': b'[ 66%] Built target arm_controller_node\n'}
[0.083623] (cpp00-urdf) JobProgress: {'identifier': 'cpp00-urdf', 'progress': 'install'}
[0.085744] (move_control) StdoutLine: {'line': b'[ 83%] \x1b[32mBuilding CXX object CMakeFiles/bucket_controller_node.dir/src/bucketControl.cpp.o\x1b[0m\n'}
[0.087543] (cpp00-urdf) Command: {'cmd': ['/usr/bin/cmake', '--install', '/home/trb/ros2_ws/build/cpp00-urdf'], 'cwd': '/home/trb/ros2_ws/build/cpp00-urdf', 'env': OrderedDict([('LESSOPEN', '| /usr/bin/lesspipe %s'), ('INSIDE_GENIE', 'true'), ('MAIL', '/var/mail/root'), ('USER', 'root'), ('XDG_SESSION_TYPE', 'tty'), ('SHLVL', '1'), ('LD_LIBRARY_PATH', '/usr/lib/x86_64-linux-gnu/gazebo-11/plugins:/opt/ros/humble/opt/rviz_ogre_vendor/lib:/opt/ros/humble/lib/x86_64-linux-gnu:/opt/ros/humble/lib'), ('MOTD_SHOWN', 'update-motd'), ('HOME', '/root'), ('OLDPWD', '/root'), ('ROS_PYTHON_VERSION', '3'), ('SYSTEMD_EXEC_PID', '374'), ('WSL_DISTRO_NAME', 'Ubuntu-22.04'), ('COLCON_PREFIX_PATH', '/home/trb/ros2_ws/install'), ('ROS_DISTRO', 'humble'), ('LOGNAME', 'root'), ('WSL_INTEROP', '/run/WSL/8_interop'), ('_', '/usr/bin/colcon'), ('ROS_VERSION', '2'), ('XDG_SESSION_CLASS', 'user'), ('TERM', 'xterm-256color'), ('XDG_SESSION_ID', 'c1'), ('ROS_LOCALHOST_ONLY', '0'), ('PATH', '/opt/ros/humble/bin:/usr/local/sbin:/usr/local/bin:/usr/sbin:/usr/bin:/sbin:/bin:/usr/games:/usr/local/games:/snap/bin'), ('INVOCATION_ID', '7379646846084c1cbae608fa5c021840'), ('XDG_RUNTIME_DIR', '/run/user/0'), ('DISPLAY', '172.28.160.1:0'), ('LANG', 'en_US.UTF-8'), ('LS_COLORS', 'rs=0:di=01;34:ln=01;36:mh=00:pi=40;33:so=01;35:do=01;35:bd=40;33;01:cd=40;33;01:or=40;31;01:mi=00:su=37;41:sg=30;43:ca=30;41:tw=30;42:ow=34;42:st=37;44:ex=01;32:*.tar=01;31:*.tgz=01;31:*.arc=01;31:*.arj=01;31:*.taz=01;31:*.lha=01;31:*.lz4=01;31:*.lzh=01;31:*.lzma=01;31:*.tlz=01;31:*.txz=01;31:*.tzo=01;31:*.t7z=01;31:*.zip=01;31:*.z=01;31:*.dz=01;31:*.gz=01;31:*.lrz=01;31:*.lz=01;31:*.lzo=01;31:*.xz=01;31:*.zst=01;31:*.tzst=01;31:*.bz2=01;31:*.bz=01;31:*.tbz=01;31:*.tbz2=01;31:*.tz=01;31:*.deb=01;31:*.rpm=01;31:*.jar=01;31:*.war=01;31:*.ear=01;31:*.sar=01;31:*.rar=01;31:*.alz=01;31:*.ace=01;31:*.zoo=01;31:*.cpio=01;31:*.7z=01;31:*.rz=01;31:*.cab=01;31:*.wim=01;31:*.swm=01;31:*.dwm=01;31:*.esd=01;31:*.jpg=01;35:*.jpeg=01;35:*.mjpg=01;35:*.mjpeg=01;35:*.gif=01;35:*.bmp=01;35:*.pbm=01;35:*.pgm=01;35:*.ppm=01;35:*.tga=01;35:*.xbm=01;35:*.xpm=01;35:*.tif=01;35:*.tiff=01;35:*.png=01;35:*.svg=01;35:*.svgz=01;35:*.mng=01;35:*.pcx=01;35:*.mov=01;35:*.mpg=01;35:*.mpeg=01;35:*.m2v=01;35:*.mkv=01;35:*.webm=01;35:*.webp=01;35:*.ogm=01;35:*.mp4=01;35:*.m4v=01;35:*.mp4v=01;35:*.vob=01;35:*.qt=01;35:*.nuv=01;35:*.wmv=01;35:*.asf=01;35:*.rm=01;35:*.rmvb=01;35:*.flc=01;35:*.avi=01;35:*.fli=01;35:*.flv=01;35:*.gl=01;35:*.dl=01;35:*.xcf=01;35:*.xwd=01;35:*.yuv=01;35:*.cgm=01;35:*.emf=01;35:*.ogv=01;35:*.ogx=01;35:*.aac=00;36:*.au=00;36:*.flac=00;36:*.m4a=00;36:*.mid=00;36:*.midi=00;36:*.mka=00;36:*.mp3=00;36:*.mpc=00;36:*.ogg=00;36:*.ra=00;36:*.wav=00;36:*.oga=00;36:*.opus=00;36:*.spx=00;36:*.xspf=00;36:'), ('AMENT_PREFIX_PATH', '/home/trb/ros2_ws/install/move_control:/home/trb/ros2_ws/install/cpp00-urdf:/opt/ros/humble'), ('SHELL', '/bin/sh'), ('LESSCLOSE', '/usr/bin/lesspipe %s %s'), ('PWD', '/home/trb/ros2_ws/build/cpp00-urdf'), ('LC_ALL', 'en_US.UTF-8'), ('XDG_DATA_DIRS', '/usr/local/share:/usr/share:/var/lib/snapd/desktop'), ('PYTHONPATH', '/opt/ros/humble/lib/python3.10/site-packages:/opt/ros/humble/local/lib/python3.10/dist-packages'), ('COLCON', '1'), ('CMAKE_PREFIX_PATH', '/home/trb/ros2_ws/install/move_control:/home/trb/ros2_ws/install/cpp00-urdf:/opt/ros/humble'), ('WSLENV', '')]), 'shell': False}
[0.090334] (cpp00-urdf) StdoutLine: {'line': b'-- Install configuration: ""\n'}
[0.090516] (cpp00-urdf) StdoutLine: {'line': b'-- Up-to-date: /home/trb/ros2_ws/install/cpp00-urdf/share/cpp00-urdf/launch\n'}
[0.090595] (cpp00-urdf) StdoutLine: {'line': b'-- Up-to-date: /home/trb/ros2_ws/install/cpp00-urdf/share/cpp00-urdf/launch/display.launch.py\n'}
[0.090673] (cpp00-urdf) StdoutLine: {'line': b'-- Up-to-date: /home/trb/ros2_ws/install/cpp00-urdf/share/cpp00-urdf/rviz\n'}
[0.090747] (cpp00-urdf) StdoutLine: {'line': b'-- Up-to-date: /home/trb/ros2_ws/install/cpp00-urdf/share/cpp00-urdf/urdf\n'}
[0.090822] (cpp00-urdf) StdoutLine: {'line': b'-- Up-to-date: /home/trb/ros2_ws/install/cpp00-urdf/share/cpp00-urdf/urdf/xacro\n'}
[0.090899] (cpp00-urdf) StdoutLine: {'line': b'-- Up-to-date: /home/trb/ros2_ws/install/cpp00-urdf/share/cpp00-urdf/urdf/urdf\n'}
[0.090973] (cpp00-urdf) StdoutLine: {'line': b'-- Up-to-date: /home/trb/ros2_ws/install/cpp00-urdf/share/cpp00-urdf/urdf/urdf/cat259d.urdf\n'}
[0.091049] (cpp00-urdf) StdoutLine: {'line': b'-- Up-to-date: /home/trb/ros2_ws/install/cpp00-urdf/share/cpp00-urdf/meshes\n'}
[0.091080] (cpp00-urdf) StdoutLine: {'line': b'-- Up-to-date: /home/trb/ros2_ws/install/cpp00-urdf/share/cpp00-urdf/meshes/arm.dae\n'}
[0.091193] (cpp00-urdf) StdoutLine: {'line': b'-- Up-to-date: /home/trb/ros2_ws/install/cpp00-urdf/share/cpp00-urdf/meshes/bucket.dae\n'}
[0.091227] (cpp00-urdf) StdoutLine: {'line': b'-- Up-to-date: /home/trb/ros2_ws/install/cpp00-urdf/share/cpp00-urdf/meshes/body.dae\n'}
[0.091252] (cpp00-urdf) StdoutLine: {'line': b'-- Up-to-date: /home/trb/ros2_ws/install/cpp00-urdf/share/ament_index/resource_index/package_run_dependencies/cpp00-urdf\n'}
[0.091277] (cpp00-urdf) StdoutLine: {'line': b'-- Up-to-date: /home/trb/ros2_ws/install/cpp00-urdf/share/ament_index/resource_index/parent_prefix_path/cpp00-urdf\n'}
[0.091301] (cpp00-urdf) StdoutLine: {'line': b'-- Up-to-date: /home/trb/ros2_ws/install/cpp00-urdf/share/cpp00-urdf/environment/ament_prefix_path.sh\n'}
[0.091326] (cpp00-urdf) StdoutLine: {'line': b'-- Up-to-date: /home/trb/ros2_ws/install/cpp00-urdf/share/cpp00-urdf/environment/ament_prefix_path.dsv\n'}
[0.091348] (cpp00-urdf) StdoutLine: {'line': b'-- Up-to-date: /home/trb/ros2_ws/install/cpp00-urdf/share/cpp00-urdf/environment/path.sh\n'}
[0.091370] (cpp00-urdf) StdoutLine: {'line': b'-- Up-to-date: /home/trb/ros2_ws/install/cpp00-urdf/share/cpp00-urdf/environment/path.dsv\n'}
[0.091392] (cpp00-urdf) StdoutLine: {'line': b'-- Up-to-date: /home/trb/ros2_ws/install/cpp00-urdf/share/cpp00-urdf/local_setup.bash\n'}
[0.091414] (cpp00-urdf) StdoutLine: {'line': b'-- Up-to-date: /home/trb/ros2_ws/install/cpp00-urdf/share/cpp00-urdf/local_setup.sh\n'}
[0.091435] (cpp00-urdf) StdoutLine: {'line': b'-- Up-to-date: /home/trb/ros2_ws/install/cpp00-urdf/share/cpp00-urdf/local_setup.zsh\n'}
[0.091456] (cpp00-urdf) StdoutLine: {'line': b'-- Up-to-date: /home/trb/ros2_ws/install/cpp00-urdf/share/cpp00-urdf/local_setup.dsv\n'}
[0.091478] (cpp00-urdf) StdoutLine: {'line': b'-- Installing: /home/trb/ros2_ws/install/cpp00-urdf/share/cpp00-urdf/package.dsv\n'}
[0.091538] (cpp00-urdf) StdoutLine: {'line': b'-- Up-to-date: /home/trb/ros2_ws/install/cpp00-urdf/share/ament_index/resource_index/packages/cpp00-urdf\n'}
[0.091612] (cpp00-urdf) StdoutLine: {'line': b'-- Up-to-date: /home/trb/ros2_ws/install/cpp00-urdf/share/cpp00-urdf/cmake/cpp00-urdfConfig.cmake\n'}
[0.091686] (cpp00-urdf) StdoutLine: {'line': b'-- Up-to-date: /home/trb/ros2_ws/install/cpp00-urdf/share/cpp00-urdf/cmake/cpp00-urdfConfig-version.cmake\n'}
[0.091760] (cpp00-urdf) StdoutLine: {'line': b'-- Up-to-date: /home/trb/ros2_ws/install/cpp00-urdf/share/cpp00-urdf/package.xml\n'}
[0.092356] (cpp00-urdf) CommandEnded: {'returncode': 0}
[0.099106] (-) TimerEvent: {}
[0.156809] (cpp00-urdf) JobEnded: {'identifier': 'cpp00-urdf', 'rc': 0}
[0.199374] (-) TimerEvent: {}
[0.299650] (-) TimerEvent: {}
[0.399932] (-) TimerEvent: {}
[0.500270] (-) TimerEvent: {}
[0.600645] (-) TimerEvent: {}
[0.701075] (-) TimerEvent: {}
[0.801374] (-) TimerEvent: {}
[0.901673] (-) TimerEvent: {}
[1.002317] (-) TimerEvent: {}
[1.102806] (-) TimerEvent: {}
[1.203283] (-) TimerEvent: {}
[1.303594] (-) TimerEvent: {}
[1.403919] (-) TimerEvent: {}
[1.504295] (-) TimerEvent: {}
[1.604721] (-) TimerEvent: {}
[1.705121] (-) TimerEvent: {}
[1.805415] (-) TimerEvent: {}
[1.905746] (-) TimerEvent: {}
[2.006183] (-) TimerEvent: {}
[2.106706] (-) TimerEvent: {}
[2.207021] (-) TimerEvent: {}
[2.307397] (-) TimerEvent: {}
[2.407701] (-) TimerEvent: {}
[2.508053] (-) TimerEvent: {}
[2.608396] (-) TimerEvent: {}
[2.708878] (-) TimerEvent: {}
[2.809276] (-) TimerEvent: {}
[2.909602] (-) TimerEvent: {}
[3.009914] (-) TimerEvent: {}
[3.110339] (-) TimerEvent: {}
[3.210658] (-) TimerEvent: {}
[3.310977] (-) TimerEvent: {}
[3.411285] (-) TimerEvent: {}
[3.511614] (-) TimerEvent: {}
[3.612073] (-) TimerEvent: {}
[3.712474] (-) TimerEvent: {}
[3.812951] (-) TimerEvent: {}
[3.913449] (-) TimerEvent: {}
[4.013928] (-) TimerEvent: {}
[4.114422] (-) TimerEvent: {}
[4.214896] (-) TimerEvent: {}
[4.315190] (-) TimerEvent: {}
[4.415553] (-) TimerEvent: {}
[4.516030] (-) TimerEvent: {}
[4.616325] (-) TimerEvent: {}
[4.716630] (-) TimerEvent: {}
[4.817061] (-) TimerEvent: {}
[4.917354] (-) TimerEvent: {}
[5.017660] (-) TimerEvent: {}
[5.117952] (-) TimerEvent: {}
[5.218309] (-) TimerEvent: {}
[5.318616] (-) TimerEvent: {}
[5.419061] (-) TimerEvent: {}
[5.519406] (-) TimerEvent: {}
[5.619724] (-) TimerEvent: {}
[5.719994] (-) TimerEvent: {}
[5.820375] (-) TimerEvent: {}
[5.893953] (move_control) StdoutLine: {'line': b'[100%] \x1b[32m\x1b[1mLinking CXX executable bucket_controller_node\x1b[0m\n'}
[5.920605] (-) TimerEvent: {}
[6.021057] (-) TimerEvent: {}
[6.121426] (-) TimerEvent: {}
[6.187861] (move_control) StdoutLine: {'line': b'[100%] Built target bucket_controller_node\n'}
[6.193763] (move_control) CommandEnded: {'returncode': 0}
[6.206388] (move_control) JobProgress: {'identifier': 'move_control', 'progress': 'install'}
[6.207347] (move_control) Command: {'cmd': ['/usr/bin/cmake', '--install', '/home/trb/ros2_ws/build/move_control'], 'cwd': '/home/trb/ros2_ws/build/move_control', 'env': OrderedDict([('LESSOPEN', '| /usr/bin/lesspipe %s'), ('INSIDE_GENIE', 'true'), ('MAIL', '/var/mail/root'), ('USER', 'root'), ('XDG_SESSION_TYPE', 'tty'), ('SHLVL', '1'), ('LD_LIBRARY_PATH', '/usr/lib/x86_64-linux-gnu/gazebo-11/plugins:/opt/ros/humble/opt/rviz_ogre_vendor/lib:/opt/ros/humble/lib/x86_64-linux-gnu:/opt/ros/humble/lib'), ('MOTD_SHOWN', 'update-motd'), ('HOME', '/root'), ('OLDPWD', '/root'), ('ROS_PYTHON_VERSION', '3'), ('SYSTEMD_EXEC_PID', '374'), ('WSL_DISTRO_NAME', 'Ubuntu-22.04'), ('COLCON_PREFIX_PATH', '/home/trb/ros2_ws/install'), ('ROS_DISTRO', 'humble'), ('LOGNAME', 'root'), ('WSL_INTEROP', '/run/WSL/8_interop'), ('_', '/usr/bin/colcon'), ('ROS_VERSION', '2'), ('XDG_SESSION_CLASS', 'user'), ('TERM', 'xterm-256color'), ('XDG_SESSION_ID', 'c1'), ('ROS_LOCALHOST_ONLY', '0'), ('PATH', '/opt/ros/humble/bin:/usr/local/sbin:/usr/local/bin:/usr/sbin:/usr/bin:/sbin:/bin:/usr/games:/usr/local/games:/snap/bin'), ('INVOCATION_ID', '7379646846084c1cbae608fa5c021840'), ('XDG_RUNTIME_DIR', '/run/user/0'), ('DISPLAY', '172.28.160.1:0'), ('LANG', 'en_US.UTF-8'), ('LS_COLORS', 'rs=0:di=01;34:ln=01;36:mh=00:pi=40;33:so=01;35:do=01;35:bd=40;33;01:cd=40;33;01:or=40;31;01:mi=00:su=37;41:sg=30;43:ca=30;41:tw=30;42:ow=34;42:st=37;44:ex=01;32:*.tar=01;31:*.tgz=01;31:*.arc=01;31:*.arj=01;31:*.taz=01;31:*.lha=01;31:*.lz4=01;31:*.lzh=01;31:*.lzma=01;31:*.tlz=01;31:*.txz=01;31:*.tzo=01;31:*.t7z=01;31:*.zip=01;31:*.z=01;31:*.dz=01;31:*.gz=01;31:*.lrz=01;31:*.lz=01;31:*.lzo=01;31:*.xz=01;31:*.zst=01;31:*.tzst=01;31:*.bz2=01;31:*.bz=01;31:*.tbz=01;31:*.tbz2=01;31:*.tz=01;31:*.deb=01;31:*.rpm=01;31:*.jar=01;31:*.war=01;31:*.ear=01;31:*.sar=01;31:*.rar=01;31:*.alz=01;31:*.ace=01;31:*.zoo=01;31:*.cpio=01;31:*.7z=01;31:*.rz=01;31:*.cab=01;31:*.wim=01;31:*.swm=01;31:*.dwm=01;31:*.esd=01;31:*.jpg=01;35:*.jpeg=01;35:*.mjpg=01;35:*.mjpeg=01;35:*.gif=01;35:*.bmp=01;35:*.pbm=01;35:*.pgm=01;35:*.ppm=01;35:*.tga=01;35:*.xbm=01;35:*.xpm=01;35:*.tif=01;35:*.tiff=01;35:*.png=01;35:*.svg=01;35:*.svgz=01;35:*.mng=01;35:*.pcx=01;35:*.mov=01;35:*.mpg=01;35:*.mpeg=01;35:*.m2v=01;35:*.mkv=01;35:*.webm=01;35:*.webp=01;35:*.ogm=01;35:*.mp4=01;35:*.m4v=01;35:*.mp4v=01;35:*.vob=01;35:*.qt=01;35:*.nuv=01;35:*.wmv=01;35:*.asf=01;35:*.rm=01;35:*.rmvb=01;35:*.flc=01;35:*.avi=01;35:*.fli=01;35:*.flv=01;35:*.gl=01;35:*.dl=01;35:*.xcf=01;35:*.xwd=01;35:*.yuv=01;35:*.cgm=01;35:*.emf=01;35:*.ogv=01;35:*.ogx=01;35:*.aac=00;36:*.au=00;36:*.flac=00;36:*.m4a=00;36:*.mid=00;36:*.midi=00;36:*.mka=00;36:*.mp3=00;36:*.mpc=00;36:*.ogg=00;36:*.ra=00;36:*.wav=00;36:*.oga=00;36:*.opus=00;36:*.spx=00;36:*.xspf=00;36:'), ('AMENT_PREFIX_PATH', '/home/trb/ros2_ws/install/move_control:/home/trb/ros2_ws/install/cpp00-urdf:/opt/ros/humble'), ('SHELL', '/bin/sh'), ('LESSCLOSE', '/usr/bin/lesspipe %s %s'), ('PWD', '/home/trb/ros2_ws/build/move_control'), ('LC_ALL', 'en_US.UTF-8'), ('XDG_DATA_DIRS', '/usr/local/share:/usr/share:/var/lib/snapd/desktop'), ('PYTHONPATH', '/opt/ros/humble/lib/python3.10/site-packages:/opt/ros/humble/local/lib/python3.10/dist-packages'), ('COLCON', '1'), ('CMAKE_PREFIX_PATH', '/home/trb/ros2_ws/install/move_control:/home/trb/ros2_ws/install/cpp00-urdf:/opt/ros/humble'), ('WSLENV', '')]), 'shell': False}
[6.210271] (move_control) StdoutLine: {'line': b'-- Install configuration: ""\n'}
[6.210381] (move_control) StdoutLine: {'line': b'-- Up-to-date: /home/trb/ros2_ws/install/move_control/share/ament_index/resource_index/package_run_dependencies/move_control\n'}
[6.210451] (move_control) StdoutLine: {'line': b'-- Up-to-date: /home/trb/ros2_ws/install/move_control/share/ament_index/resource_index/parent_prefix_path/move_control\n'}
[6.210630] (move_control) StdoutLine: {'line': b'-- Up-to-date: /home/trb/ros2_ws/install/move_control/share/move_control/environment/ament_prefix_path.sh\n'}
[6.210696] (move_control) StdoutLine: {'line': b'-- Up-to-date: /home/trb/ros2_ws/install/move_control/share/move_control/environment/ament_prefix_path.dsv\n'}
[6.210724] (move_control) StdoutLine: {'line': b'-- Up-to-date: /home/trb/ros2_ws/install/move_control/share/move_control/environment/path.sh\n'}
[6.210749] (move_control) StdoutLine: {'line': b'-- Up-to-date: /home/trb/ros2_ws/install/move_control/share/move_control/environment/path.dsv\n'}
[6.210773] (move_control) StdoutLine: {'line': b'-- Up-to-date: /home/trb/ros2_ws/install/move_control/share/move_control/local_setup.bash\n'}
[6.210797] (move_control) StdoutLine: {'line': b'-- Up-to-date: /home/trb/ros2_ws/install/move_control/share/move_control/local_setup.sh\n'}
[6.210819] (move_control) StdoutLine: {'line': b'-- Up-to-date: /home/trb/ros2_ws/install/move_control/share/move_control/local_setup.zsh\n'}
[6.210880] (move_control) StdoutLine: {'line': b'-- Up-to-date: /home/trb/ros2_ws/install/move_control/share/move_control/local_setup.dsv\n'}
[6.210954] (move_control) StdoutLine: {'line': b'-- Installing: /home/trb/ros2_ws/install/move_control/share/move_control/package.dsv\n'}
[6.211028] (move_control) StdoutLine: {'line': b'-- Up-to-date: /home/trb/ros2_ws/install/move_control/share/ament_index/resource_index/packages/move_control\n'}
[6.211102] (move_control) StdoutLine: {'line': b'-- Up-to-date: /home/trb/ros2_ws/install/move_control/share/move_control/cmake/move_controlConfig.cmake\n'}
[6.211175] (move_control) StdoutLine: {'line': b'-- Up-to-date: /home/trb/ros2_ws/install/move_control/share/move_control/cmake/move_controlConfig-version.cmake\n'}
[6.211250] (move_control) StdoutLine: {'line': b'-- Up-to-date: /home/trb/ros2_ws/install/move_control/share/move_control/package.xml\n'}
[6.211324] (move_control) StdoutLine: {'line': b'-- Up-to-date: /home/trb/ros2_ws/install/move_control/lib/move_control/base_link_controller_node\n'}
[6.211563] (move_control) StdoutLine: {'line': b'-- Up-to-date: /home/trb/ros2_ws/install/move_control/lib/move_control/arm_controller_node\n'}
[6.211598] (move_control) StdoutLine: {'line': b'-- Installing: /home/trb/ros2_ws/install/move_control/lib/move_control/bucket_controller_node\n'}
[6.214627] (move_control) StdoutLine: {'line': b'-- Set runtime path of "/home/trb/ros2_ws/install/move_control/lib/move_control/bucket_controller_node" to ""\n'}
[6.215286] (move_control) CommandEnded: {'returncode': 0}
[6.221753] (-) TimerEvent: {}
[6.279363] (move_control) JobEnded: {'identifier': 'move_control', 'rc': 0}
[6.279941] (-) EventReactorShutdown: {}
