Invoking command in '/home/trb/ros2_ws/build/move_control': CMAKE_PREFIX_PATH=${CMAKE_PREFIX_PATH}:/opt/ros/humble /usr/bin/cmake --build /home/trb/ros2_ws/build/move_control -- -j32 -l32
Invoked command in '/home/trb/ros2_ws/build/move_control' returned '0': CMAKE_PREFIX_PATH=${CMAKE_PREFIX_PATH}:/opt/ros/humble /usr/bin/cmake --build /home/trb/ros2_ws/build/move_control -- -j32 -l32
Invoking command in '/home/trb/ros2_ws/build/move_control': CMAKE_PREFIX_PATH=${CMAKE_PREFIX_PATH}:/opt/ros/humble /usr/bin/cmake --install /home/trb/ros2_ws/build/move_control
Invoked command in '/home/trb/ros2_ws/build/move_control' returned '0': CMAKE_PREFIX_PATH=${CMAKE_PREFIX_PATH}:/opt/ros/humble /usr/bin/cmake --install /home/trb/ros2_ws/build/move_control
